<svg viewBox="0 0 566 566" xmlns="http://www.w3.org/2000/svg">
    <circle style="--animation-order: 1" fill-opacity=".15" fill="#000" cx="282.882" cy="282.882" r="282.882"></circle>
    <path style="--animation-order: 2" fill-opacity=".15" fill="#000" d="M82.937 82.897h399.886v399.967H82.937z"></path>
    <path style="--animation-order: 3" fill="#f4f1d0" d="M282.88 82.897l199.943 399.966H82.937z"></path>
</svg>