<svg xmlns="http://www.w3.org/2000/svg" viewBox="0 0 566 516">
    <circle style="--animation-order: 0.25" cx="55.5" cy="55.5" r="55.5" fill="#f4f1d0"></circle>
    <circle style="--animation-order: 0.5" cx="190.5" cy="55.5" r="55.5" fill="#f4f1d0"></circle>
    <circle style="--animation-order: 0.75" cx="325.5" cy="55.5" r="55.5" fill="#f4f1d0"></circle>
    <circle style="--animation-order: 1.25" cx="55.5" cy="190.5" r="55.5" fill="#f4f1d0"></circle>
    <circle style="--animation-order: 1.5" cx="190.5" cy="190.5" r="55.5" fill="#f4f1d0"></circle>
    <circle style="--animation-order: 1.75" cx="325.5" cy="190.5" r="55.5" fill="#f4f1d0"></circle>
    <circle style="--animation-order: 2" cx="55.5" cy="325.5" r="55.5" fill="#f4f1d0"></circle>
    <circle style="--animation-order: 2.25" cx="190.5" cy="325.5" r="55.5" fill="#f4f1d0"></circle>
    <circle style="--animation-order: 2.5" cx="325.5" cy="325.5" r="55.5" fill="#f4f1d0"></circle>
    <circle style="--animation-order: 2.75" cx="55.5" cy="460.5" r="55.5" fill="#f4f1d0"></circle>
    <circle style="--animation-order: 3" cx="190.5" cy="460.5" r="55.5" fill="#f4f1d0"></circle>
    <circle style="--animation-order: 3.25" cx="325.5" cy="460.5" r="55.5" fill="#f4f1d0"></circle>
    <circle style="--animation-order: 3.5" cx="510.5" cy="55.5" r="55.5" fill="#000" fill-opacity=".2"></circle>
    <circle style="--animation-order: 3.75" cx="510.5" cy="190.5" r="55.5" fill="#000" fill-opacity=".2"></circle>
    <circle style="--animation-order: 4" cx="510.5" cy="325.5" r="55.5" fill="#000" fill-opacity=".2"></circle>
    <circle style="--animation-order: 4.25" cx="510.5" cy="460.5" r="55.5" fill="#000" fill-opacity=".2"></circle>
</svg>