<svg xmlns="http://www.w3.org/2000/svg" viewBox="0 0 567 507">
    <path style="--animation-order: 1" d="M77.5218237 15.8098047 18.2743646 118.429414 77.5218237 221.049023H196.016742L255.264201 118.429414 196.016742 15.8098047H77.5218237zM68.8615697.809804688H204.676996L272.584709 118.429414 204.676996 236.049023H68.8615697L.953856568 118.429414 68.8615697.809804688zM71 1H205V236H71V1zM86 16V221H190V16H86zM14.9246324 126V111H260.089469v15H14.9246324zM272 118.5 68 236 124.328358 118.5 68 1 272 118.5zM102.44341 38.148972 140.962912 118.5 102.44341 198.851028 241.946471 118.5 102.44341 38.148972zM1 118.5 205 1 146 118.5 205 236 1 118.5zM169.156836 198.044797 129.215193 118.5l39.941643-79.5447972L31.0535285 118.5 169.156836 198.044797z" fill="#f4f1d0" fill-rule="nonzero"></path>
    <path style="--animation-order: 2" d="M372.521824 15.8098047 313.274365 118.429414 372.521824 221.049023H491.016742L550.264201 118.429414 491.016742 15.8098047H372.521824zM363.86157.809804688H499.676996L567.584709 118.429414 499.676996 236.049023H363.86157L295.953857 118.429414 363.86157.809804688zM366 1H5e2V236H366V1zm15 15V221H485V16H381zM309.924632 126V111H555.089469v15H309.924632z" fill="#f4f1d0" fill-rule="nonzero"></path>
    <path style="--animation-order: 3" d="M73.1916967 278.309805H200.346869L263.924455 388.429414 200.346869 498.549023H73.1916967L9.61411061 388.429414 73.1916967 278.309805zm127.1551723.0H73.1916967L9.61411061 388.429414 73.1916967 498.549023H200.346869L263.924455 388.429414 200.346869 278.309805z" stroke="#f4f1d0" stroke-width="15" fill-rule="nonzero"></path>
    <circle style="--animation-order: 4" stroke="#f4f1d0" stroke-width="15" cx="432.5" cy="388.5" r="110" fill="none"></circle>
</svg>